runner\Runner.class
pages\BasePage.class
pages\TelerikAcademyPage.class
testCases\BaseTest.class
stepdefinitions\StepDefinitions.class
pages\GooglePage.class
stepdefinitions\BaseStepDefinitions.class
testCases\SearchInGooglePage.class
testCases\QaAcademyNavigation.class
reporter\JbehaveStoryReporter.class
