{
	"id": "855f2fee-ffdf-4f64-b9d0-b4920a4e84ea",
	"name": "GoRest",
	"values": [
		{
			"key": "url",
			"value": "https://gorest.co.in/public-api",
			"enabled": true
		}
	],
	"_postman_variable_scope": "environment",
	"_postman_exported_at": "2020-10-18T08:38:16.426Z",
	"_postman_exported_using": "Postman/7.34.0"
}