{
	"info": {
		"_postman_id": "acb45bbb-c029-4da0-affd-e8825d90d64a",
		"name": "GoRest_API_Homework",
		"schema": "https://schema.getpostman.com/json/collection/v2.1.0/collection.json"
	},
	"item": [
		{
			"name": "Create new user",
			"event": [
				{
					"listen": "test",
					"script": {
						"id": "04277898-cd61-42e9-a11b-1531ce932af0",
						"exec": [
							"pm.test(\"Status code is 200\", function () {\r",
							"    pm.response.to.have.status(200);\r",
							"});\r",
							"\r",
							"pm.test(\"Successful POST request\", function () {\r",
							"    pm.expect(pm.response.json().code).to.eql(201);\r",
							"});\r",
							"\r",
							"pm.collectionVariables.set(\"userID\", pm.response.json().data.id);\r",
							"console.log(pm.collectionVariables.get(\"userID\"));\r",
							"\r",
							"pm.collectionVariables.set(\"CreatedUser\",pm.response.json().data);\r",
							""
						],
						"type": "text/javascript"
					}
				}
			],
			"request": {
				"method": "POST",
				"header": [],
				"body": {
					"mode": "raw",
					"raw": "{\r\n    \"name\": \"{{$randomNameSuffix}}\",\r\n    \"email\": \"{{$randomEmail}}\",\r\n    \"gender\": \"Female\",\r\n    \"status\": \"Inactive\"\r\n}",
					"options": {
						"raw": {
							"language": "json"
						}
					}
				},
				"url": {
					"raw": "{{url}}/users",
					"host": [
						"{{url}}"
					],
					"path": [
						"users"
					]
				}
			},
			"response": []
		},
		{
			"name": "Current user create post",
			"event": [
				{
					"listen": "test",
					"script": {
						"id": "e5b8e505-8609-48f8-bdb5-2e68fab9b162",
						"exec": [
							"pm.test(\"Status code is 200\", function () {\r",
							"    pm.response.to.have.status(200);\r",
							"});\r",
							"\r",
							"pm.test(\"Successful POST request\", function () {\r",
							"    pm.expect(pm.response.json().code).to.eql(201);\r",
							"});\r",
							"\r",
							"var userID = pm.collectionVariables.get(\"userID\");\r",
							"\r",
							"pm.test(\"Check current user create a post\", function () {\r",
							"    var jsonData = pm.response.json();\r",
							"    pm.expect(jsonData.data.user_id).to.eql(userID);\r",
							"});\r",
							"\r",
							"pm.collectionVariables.set(\"postID\", pm.response.json().data.id)\r",
							"console.log(pm.collectionVariables.get(\"postID\"))\r",
							"\r",
							"pm.collectionVariables.set(\"CreatedPost\", pm.response.json().data);\r",
							""
						],
						"type": "text/javascript"
					}
				}
			],
			"request": {
				"method": "POST",
				"header": [],
				"body": {
					"mode": "raw",
					"raw": "{\r\n\"title\": \"title {{$randomAdjective}}\",\r\n\"body\": \"body {{$randomLoremParagraph}}\"\r\n}",
					"options": {
						"raw": {
							"language": "json"
						}
					}
				},
				"url": {
					"raw": "{{url}}/users/{{userID}}/posts",
					"host": [
						"{{url}}"
					],
					"path": [
						"users",
						"{{userID}}",
						"posts"
					]
				}
			},
			"response": []
		},
		{
			"name": "Delete created post by user",
			"event": [
				{
					"listen": "test",
					"script": {
						"id": "0aa3fc08-bc78-4c03-8b27-6c75f228d78d",
						"exec": [
							"pm.test(\"Status code is 200\", function () {\r",
							"    pm.response.to.have.status(200);\r",
							"});\r",
							"\r",
							"pm.test(\"Successful POST request\", function () {\r",
							"    pm.expect(pm.response.json().code).to.eql(204);\r",
							"});\r",
							"\r",
							"console.log(pm.response.json());\r",
							"pm.test(\"Post cannot be found\", function (){\r",
							"    const postRequest = {\r",
							"        url: pm.request.url,\r",
							"        method: 'GET', \r",
							"        header: {\r",
							"        'Content-Type': 'application/json',\r",
							"        'Authorization': 'Bearer a95190c53d2be412f5fb9e70ce471dfefbf7feba28a46ca462e4f29e7835584f'\r",
							"    }};\r",
							"    pm.sendRequest(postRequest, (error, response) => {\r",
							"    pm.expect(response.json().code).to.eql(404);\r",
							"});\r",
							"})"
						],
						"type": "text/javascript"
					}
				}
			],
			"request": {
				"method": "DELETE",
				"header": [],
				"url": {
					"raw": "{{url}}/posts/{{postID}}",
					"host": [
						"{{url}}"
					],
					"path": [
						"posts",
						"{{postID}}"
					]
				}
			},
			"response": []
		},
		{
			"name": "Current user create second post",
			"event": [
				{
					"listen": "test",
					"script": {
						"id": "22f2e841-4caa-4814-8c95-aa89c8a71047",
						"exec": [
							"pm.test(\"Status code is 200\", function () {\r",
							"    pm.response.to.have.status(200);\r",
							"});\r",
							"\r",
							"pm.test(\"Successful POST request\", function () {\r",
							"    pm.expect(pm.response.json().code).to.eql(201);\r",
							"});\r",
							"\r",
							"var userID = pm.collectionVariables.get(\"userID\");\r",
							"\r",
							"pm.test(\"Your test name\", function () {\r",
							"    var jsonData = pm.response.json();\r",
							"    pm.expect(jsonData.data.user_id).to.eql(userID);\r",
							"});\r",
							"\r",
							"pm.collectionVariables.set(\"secondPostID\", pm.response.json().data.id)\r",
							"console.log(pm.collectionVariables.get(\"secondPostID\"))\r",
							"pm.collectionVariables.set(\"CreatedSecondPost\", pm.response.json().data);\r",
							"\r",
							"var postID = pm.collectionVariables.get(\"postID\");\r",
							"\r",
							"pm.test(\"Check current user create second post\", function () {\r",
							"    var jsonData = pm.response.json();\r",
							"    pm.expect(jsonData.data.id).not.to.eql(postID);\r",
							"});\r",
							"\r",
							"pm.collectionVariables.set(\"secondPostBefore\", pm.response.json().data.title);\r",
							"var secondPostBefore = pm.collectionVariables.get(\"secondPostBefore\")\r",
							"console.log(secondPostBefore);"
						],
						"type": "text/javascript"
					}
				}
			],
			"request": {
				"method": "POST",
				"header": [],
				"body": {
					"mode": "raw",
					"raw": "{\r\n\"title\": \"title {{$randomAdjective}}\",\r\n\"body\": \"body {{$randomLoremParagraph}}\"\r\n}",
					"options": {
						"raw": {
							"language": "json"
						}
					}
				},
				"url": {
					"raw": "{{url}}/users/{{userID}}/posts",
					"host": [
						"{{url}}"
					],
					"path": [
						"users",
						"{{userID}}",
						"posts"
					]
				}
			},
			"response": []
		},
		{
			"name": "Update second post",
			"event": [
				{
					"listen": "test",
					"script": {
						"id": "1127d8fd-031e-471f-b254-3c4ab5abb8f7",
						"exec": [
							"pm.test(\"Status code is 200\", function () {\r",
							"    pm.response.to.have.status(200);\r",
							"});\r",
							"\r",
							"pm.test(\"Successful POST request\", function () {\r",
							"    pm.expect(pm.response.json().code).to.eql(200);\r",
							"});\r",
							"\r",
							"var secondPostID = pm.collectionVariables.get(\"secondPostID\");\r",
							"\r",
							"pm.test(\"Check current user update second post\", function () {\r",
							"    var jsonData = pm.response.json();\r",
							"    pm.expect(jsonData.data.id).to.eql(secondPostID);\r",
							"});\r",
							"var userID = pm.collectionVariables.get(\"userID\");\r",
							"\r",
							"pm.test(\"Check current user update a post\", function () {\r",
							"    var jsonData = pm.response.json();\r",
							"    pm.expect(jsonData.data.user_id).to.eql(userID);\r",
							"});\r",
							"\r",
							"// pm.collectionVariables.get(\"secondPostBefore\");\r",
							"var secondPostBefore = pm.collectionVariables.get(\"secondPostBefore\")\r",
							"console.log(secondPostBefore);\r",
							"\r",
							"pm.test(\"Check post is updated\", function () {\r",
							"    var jsonData = pm.response.json();\r",
							"    pm.expect(jsonData.data.title).not.to.eql(secondPostBefore);\r",
							"});\r",
							""
						],
						"type": "text/javascript"
					}
				}
			],
			"request": {
				"method": "PUT",
				"header": [],
				"body": {
					"mode": "raw",
					"raw": "{\r\n\"title\": \"title {{$randomAdjective}}\",\r\n\"body\": \"body {{$randomLoremParagraph}}\"\r\n}",
					"options": {
						"raw": {
							"language": "json"
						}
					}
				},
				"url": {
					"raw": "{{url}}/posts/{{secondPostID}}",
					"host": [
						"{{url}}"
					],
					"path": [
						"posts",
						"{{secondPostID}}"
					]
				}
			},
			"response": []
		},
		{
			"name": "Create new comment to second post",
			"event": [
				{
					"listen": "test",
					"script": {
						"id": "c355bada-8efc-4339-82a5-b722d2f59447",
						"exec": [
							"pm.test(\"Status code is 200\", function () {\r",
							"    pm.response.to.have.status(200);\r",
							"});\r",
							"\r",
							"pm.test(\"Successful POST request\", function () {\r",
							"    pm.expect(pm.response.json().code).to.eql(201);\r",
							"});\r",
							"\r",
							"var post = pm.collectionVariables.set(\"CreatedPost\")\r",
							"\r",
							"pm.test(\"Comment to currenet post\", function () {\r",
							"    var jsonData = pm.response.json();\r",
							"    pm.expect(jsonData.data).not.to.eql(post);\r",
							"});\r",
							"\r",
							"pm.test(\"Check body exist\", function () {\r",
							"    var jsonData = pm.response.json();\r",
							"    pm.expect(jsonData.data.body).not.to.eql(undefined);\r",
							"});\r",
							"\r",
							"var secondPost = pm.collectionVariables.get(\"secondPostID\")\r",
							"\r",
							"pm.test(\"Check \", function () {\r",
							"    var jsonData = pm.response.json();\r",
							"    pm.expect(jsonData.data.post_id).to.eql(secondPost);\r",
							"});\r",
							"\r",
							"\r",
							"\r",
							"\r",
							""
						],
						"type": "text/javascript"
					}
				}
			],
			"request": {
				"method": "POST",
				"header": [],
				"body": {
					"mode": "raw",
					"raw": "{\r\n\r\n\"name\": \"{{$randomNameSuffix}}\" ,\r\n\"email\": \"{{$randomEmail}}\",\r\n\"body\": \"{{$randomLoremParagraph}}\"\r\n\r\n}",
					"options": {
						"raw": {
							"language": "json"
						}
					}
				},
				"url": {
					"raw": "{{url}}/posts/{{secondPostID}}/comments",
					"host": [
						"{{url}}"
					],
					"path": [
						"posts",
						"{{secondPostID}}",
						"comments"
					]
				}
			},
			"response": []
		},
		{
			"name": "Add ToDo for user",
			"event": [
				{
					"listen": "test",
					"script": {
						"id": "e1fcd328-bd86-46ef-8433-152bbf750ae2",
						"exec": [
							"pm.test(\"Status code is 200\", function () {\r",
							"    pm.response.to.have.status(200);\r",
							"});\r",
							"\r",
							"pm.test(\"Successful POST request\", function () {\r",
							"    pm.expect(pm.response.json().code).to.eql(201);\r",
							"});\r",
							"\r",
							"var user = pm.collectionVariables.get(\"userID\")\r",
							"\r",
							"pm.test(\"Check current ToDo for CreatedUser\", function () {\r",
							"    var jsonData = pm.response.json();\r",
							"    pm.expect(jsonData.data.user_id).to.eql(user);\r",
							"});\r",
							"\r",
							"pm.test(\"Check body exist\", function () {\r",
							"    var jsonData = pm.response.json();\r",
							"    pm.expect(jsonData.data.completed).not.to.eql(false);\r",
							"});\r",
							"\r",
							"\r",
							"\r",
							"\r",
							""
						],
						"type": "text/javascript"
					}
				}
			],
			"request": {
				"method": "POST",
				"header": [],
				"body": {
					"mode": "raw",
					"raw": "{\r\n\r\n\"title\": \"{{$randomCatchPhrase}}\" ,\r\n\"completed\": true\r\n\r\n}",
					"options": {
						"raw": {
							"language": "json"
						}
					}
				},
				"url": {
					"raw": "{{url}}/users/{{userID}}/todos",
					"host": [
						"{{url}}"
					],
					"path": [
						"users",
						"{{userID}}",
						"todos"
					]
				}
			},
			"response": []
		},
		{
			"name": "Delete second post",
			"event": [
				{
					"listen": "test",
					"script": {
						"id": "be91ec11-7b71-41f7-b971-58751483229e",
						"exec": [
							"pm.test(\"Status code is 200\", function () {\r",
							"    pm.response.to.have.status(200);\r",
							"});\r",
							"\r",
							"pm.test(\"Successful POST request\", function () {\r",
							"    pm.expect(pm.response.json().code).to.eql(204);\r",
							"});\r",
							"\r",
							"pm.test(\"Post cannot be found\", function (){\r",
							"    const postRequest = {\r",
							"        url: pm.request.url,\r",
							"        method: 'GET', \r",
							"        header: {\r",
							"        'Content-Type': 'application/json',\r",
							"        'Authorization': 'Bearer a95190c53d2be412f5fb9e70ce471dfefbf7feba28a46ca462e4f29e7835584f'\r",
							"    }};\r",
							"    pm.sendRequest(postRequest, (error, response) => {\r",
							"    pm.expect(response.json().code).to.eql(404);\r",
							"});\r",
							"})"
						],
						"type": "text/javascript"
					}
				}
			],
			"request": {
				"method": "DELETE",
				"header": [],
				"url": {
					"raw": "{{url}}/posts/{{secondPostID}}",
					"host": [
						"{{url}}"
					],
					"path": [
						"posts",
						"{{secondPostID}}"
					]
				}
			},
			"response": []
		},
		{
			"name": "Delete user",
			"event": [
				{
					"listen": "test",
					"script": {
						"id": "fdf64e8b-f83c-4912-8f9a-0132228dfc4e",
						"exec": [
							"pm.test(\"Status code is 200\", function () {\r",
							"    pm.response.to.have.status(200);\r",
							"});\r",
							"\r",
							"pm.test(\"Successful POST request\", function () {\r",
							"    pm.expect(pm.response.json().code).to.eql(204);\r",
							"});\r",
							"\r",
							"pm.test(\"User cannot be found\", function (){\r",
							"    const postRequest = {\r",
							"        url: pm.request.url,\r",
							"        method: 'GET', \r",
							"        header: {\r",
							"        'Content-Type': 'application/json',\r",
							"        'Authorization': 'Bearer a95190c53d2be412f5fb9e70ce471dfefbf7feba28a46ca462e4f29e7835584f'\r",
							"    }};\r",
							"    pm.sendRequest(postRequest, (error, response) => {\r",
							"    pm.expect(response.json().code).to.eql(404);\r",
							"});\r",
							"})"
						],
						"type": "text/javascript"
					}
				}
			],
			"request": {
				"method": "DELETE",
				"header": [],
				"url": {
					"raw": "{{url}}/users/{{userID}}",
					"host": [
						"{{url}}"
					],
					"path": [
						"users",
						"{{userID}}"
					]
				}
			},
			"response": []
		}
	],
	"auth": {
		"type": "bearer",
		"bearer": [
			{
				"key": "token",
				"value": "a95190c53d2be412f5fb9e70ce471dfefbf7feba28a46ca462e4f29e7835584f",
				"type": "string"
			}
		]
	},
	"event": [
		{
			"listen": "prerequest",
			"script": {
				"id": "8ed4b9b8-9c70-4593-98a4-eb79469a4e80",
				"type": "text/javascript",
				"exec": [
					""
				]
			}
		},
		{
			"listen": "test",
			"script": {
				"id": "e9b0ff9e-a8b5-4106-b95d-2d8a94cbb930",
				"type": "text/javascript",
				"exec": [
					""
				]
			}
		}
	],
	"variable": [
		{
			"id": "f36da0f1-76f3-4af4-b30c-e95e392323bf",
			"key": "CreatedUser",
			"value": ""
		},
		{
			"id": "323d03b7-97e6-4f58-9280-36a7bc8d9b5d",
			"key": "postID",
			"value": ""
		},
		{
			"id": "5e0ee6f3-d749-4f69-be0d-f7432ff62166",
			"key": "secondPostID",
			"value": ""
		},
		{
			"id": "72501650-024d-48c5-9c16-1006ce322e16",
			"key": "CreatedPost",
			"value": ""
		},
		{
			"id": "c059d6e7-f6fd-47ef-932a-d0b42274a97e",
			"key": "CreatedSecondPost",
			"value": ""
		},
		{
			"id": "66d16012-2ee1-4ae5-a55a-a5dc9e70d849",
			"key": "userID",
			"value": ""
		},
		{
			"id": "7bbb7a03-89de-489f-abc1-eb4696c89787",
			"key": "secondPostBefore",
			"value": ""
		},
		{
			"id": "69cddd9c-e8a2-4ef4-805b-8539ed921c91",
			"key": "secondPostAfter",
			"value": ""
		}
	],
	"protocolProfileBehavior": {}
}